DoAnLLS/simulation/qsim/DoAnCK.msim.vcd
$comment
	File created using the following command:
		vcd file DoAnCK.msim.vcd -direction
$end
$date
	Tue Jun 06 20:43:00 2023
$end
$version
	ModelSim Version 10.1d
$end
$timescale
	1ps
$end
$scope module isgreater_64bit_vlg_vec_tst $end
$var reg 64 ! A [63:0] $end
$var reg 64 " B [63:0] $end
$var wire 1 # Out [63] $end
$var wire 1 $ Out [62] $end
$var wire 1 % Out [61] $end
$var wire 1 & Out [60] $end
$var wire 1 ' Out [59] $end
$var wire 1 ( Out [58] $end
$var wire 1 ) Out [57] $end
$var wire 1 * Out [56] $end
$var wire 1 + Out [55] $end
$var wire 1 , Out [54] $end
$var wire 1 - Out [53] $end
$var wire 1 . Out [52] $end
$var wire 1 / Out [51] $end
$var wire 1 0 Out [50] $end
$var wire 1 1 Out [49] $end
$var wire 1 2 Out [48] $end
$var wire 1 3 Out [47] $end
$var wire 1 4 Out [46] $end
$var wire 1 5 Out [45] $end
$var wire 1 6 Out [44] $end
$var wire 1 7 Out [43] $end
$var wire 1 8 Out [42] $end
$var wire 1 9 Out [41] $end
$var wire 1 : Out [40] $end
$var wire 1 ; Out [39] $end
$var wire 1 < Out [38] $end
$var wire 1 = Out [37] $end
$var wire 1 > Out [36] $end
$var wire 1 ? Out [35] $end
$var wire 1 @ Out [34] $end
$var wire 1 A Out [33] $end
$var wire 1 B Out [32] $end
$var wire 1 C Out [31] $end
$var wire 1 D Out [30] $end
$var wire 1 E Out [29] $end
$var wire 1 F Out [28] $end
$var wire 1 G Out [27] $end
$var wire 1 H Out [26] $end
$var wire 1 I Out [25] $end
$var wire 1 J Out [24] $end
$var wire 1 K Out [23] $end
$var wire 1 L Out [22] $end
$var wire 1 M Out [21] $end
$var wire 1 N Out [20] $end
$var wire 1 O Out [19] $end
$var wire 1 P Out [18] $end
$var wire 1 Q Out [17] $end
$var wire 1 R Out [16] $end
$var wire 1 S Out [15] $end
$var wire 1 T Out [14] $end
$var wire 1 U Out [13] $end
$var wire 1 V Out [12] $end
$var wire 1 W Out [11] $end
$var wire 1 X Out [10] $end
$var wire 1 Y Out [9] $end
$var wire 1 Z Out [8] $end
$var wire 1 [ Out [7] $end
$var wire 1 \ Out [6] $end
$var wire 1 ] Out [5] $end
$var wire 1 ^ Out [4] $end
$var wire 1 _ Out [3] $end
$var wire 1 ` Out [2] $end
$var wire 1 a Out [1] $end
$var wire 1 b Out [0] $end
$var wire 1 c sampler $end
$scope module i1 $end
$var wire 1 d gnd $end
$var wire 1 e vcc $end
$var wire 1 f unknown $end
$var tri1 1 g devclrn $end
$var tri1 1 h devpor $end
$var tri1 1 i devoe $end
$var wire 1 j inst1|Add0~2_combout $end
$var wire 1 k inst1|Add0~4_combout $end
$var wire 1 l inst1|Add0~6_combout $end
$var wire 1 m inst1|Add0~16_combout $end
$var wire 1 n inst1|Add0~26_combout $end
$var wire 1 o inst1|Add0~34_combout $end
$var wire 1 p inst1|Add0~36_combout $end
$var wire 1 q inst1|Add0~38_combout $end
$var wire 1 r inst1|Add0~48_combout $end
$var wire 1 s inst1|Add0~58_combout $end
$var wire 1 t inst1|Add0~66_combout $end
$var wire 1 u inst1|Add0~68_combout $end
$var wire 1 v inst1|Add0~70_combout $end
$var wire 1 w inst1|Add0~80_combout $end
$var wire 1 x inst1|Add0~90_combout $end
$var wire 1 y inst1|Add0~98_combout $end
$var wire 1 z inst1|Add0~100_combout $end
$var wire 1 { inst1|Add0~102_combout $end
$var wire 1 | inst1|Add0~112_combout $end
$var wire 1 } inst1|Add0~122_combout $end
$var wire 1 ~ inst1|Add0~1 $end
$var wire 1 !! inst1|Add0~3 $end
$var wire 1 "! inst1|Add0~5 $end
$var wire 1 #! inst1|Add0~7 $end
$var wire 1 $! inst1|Add0~9 $end
$var wire 1 %! inst1|Add0~11 $end
$var wire 1 &! inst1|Add0~13 $end
$var wire 1 '! inst1|Add0~15 $end
$var wire 1 (! inst1|Add0~17 $end
$var wire 1 )! inst1|Add0~19 $end
$var wire 1 *! inst1|Add0~21 $end
$var wire 1 +! inst1|Add0~23 $end
$var wire 1 ,! inst1|Add0~25 $end
$var wire 1 -! inst1|Add0~27 $end
$var wire 1 .! inst1|Add0~29 $end
$var wire 1 /! inst1|Add0~31 $end
$var wire 1 0! inst1|Add0~33 $end
$var wire 1 1! inst1|Add0~35 $end
$var wire 1 2! inst1|Add0~37 $end
$var wire 1 3! inst1|Add0~39 $end
$var wire 1 4! inst1|Add0~41 $end
$var wire 1 5! inst1|Add0~43 $end
$var wire 1 6! inst1|Add0~45 $end
$var wire 1 7! inst1|Add0~47 $end
$var wire 1 8! inst1|Add0~49 $end
$var wire 1 9! inst1|Add0~51 $end
$var wire 1 :! inst1|Add0~53 $end
$var wire 1 ;! inst1|Add0~55 $end
$var wire 1 <! inst1|Add0~57 $end
$var wire 1 =! inst1|Add0~59 $end
$var wire 1 >! inst1|Add0~61 $end
$var wire 1 ?! inst1|Add0~63 $end
$var wire 1 @! inst1|Add0~65 $end
$var wire 1 A! inst1|Add0~67 $end
$var wire 1 B! inst1|Add0~69 $end
$var wire 1 C! inst1|Add0~71 $end
$var wire 1 D! inst1|Add0~73 $end
$var wire 1 E! inst1|Add0~75 $end
$var wire 1 F! inst1|Add0~77 $end
$var wire 1 G! inst1|Add0~79 $end
$var wire 1 H! inst1|Add0~81 $end
$var wire 1 I! inst1|Add0~83 $end
$var wire 1 J! inst1|Add0~85 $end
$var wire 1 K! inst1|Add0~87 $end
$var wire 1 L! inst1|Add0~89 $end
$var wire 1 M! inst1|Add0~91 $end
$var wire 1 N! inst1|Add0~93 $end
$var wire 1 O! inst1|Add0~95 $end
$var wire 1 P! inst1|Add0~97 $end
$var wire 1 Q! inst1|Add0~99 $end
$var wire 1 R! inst1|Add0~101 $end
$var wire 1 S! inst1|Add0~103 $end
$var wire 1 T! inst1|Add0~105 $end
$var wire 1 U! inst1|Add0~107 $end
$var wire 1 V! inst1|Add0~109 $end
$var wire 1 W! inst1|Add0~111 $end
$var wire 1 X! inst1|Add0~113 $end
$var wire 1 Y! inst1|Add0~115 $end
$var wire 1 Z! inst1|Add0~117 $end
$var wire 1 [! inst1|Add0~119 $end
$var wire 1 \! inst1|Add0~121 $end
$var wire 1 ]! inst1|Add0~123 $end
$var wire 1 ^! inst1|Add0~125 $end
$var wire 1 _! inst1|Add0~126_combout $end
$var wire 1 `! inst1|Add0~124_combout $end
$var wire 1 a! inst1|Add0~120_combout $end
$var wire 1 b! inst1|Add0~118_combout $end
$var wire 1 c! inst1|Add0~116_combout $end
$var wire 1 d! inst1|Add0~114_combout $end
$var wire 1 e! inst1|Add0~110_combout $end
$var wire 1 f! inst1|Add0~108_combout $end
$var wire 1 g! inst1|Add0~106_combout $end
$var wire 1 h! inst1|Add0~104_combout $end
$var wire 1 i! inst1|Add0~96_combout $end
$var wire 1 j! inst1|Add0~94_combout $end
$var wire 1 k! inst1|Add0~92_combout $end
$var wire 1 l! inst1|Add0~88_combout $end
$var wire 1 m! inst1|Add0~86_combout $end
$var wire 1 n! inst1|Add0~84_combout $end
$var wire 1 o! inst1|Add0~82_combout $end
$var wire 1 p! inst1|Add0~78_combout $end
$var wire 1 q! inst1|Add0~76_combout $end
$var wire 1 r! inst1|Add0~74_combout $end
$var wire 1 s! inst1|Add0~72_combout $end
$var wire 1 t! inst1|Add0~64_combout $end
$var wire 1 u! inst1|Add0~62_combout $end
$var wire 1 v! inst1|Add0~60_combout $end
$var wire 1 w! inst1|Add0~56_combout $end
$var wire 1 x! inst1|Add0~54_combout $end
$var wire 1 y! inst1|Add0~52_combout $end
$var wire 1 z! inst1|Add0~50_combout $end
$var wire 1 {! inst1|Add0~46_combout $end
$var wire 1 |! inst1|Add0~44_combout $end
$var wire 1 }! inst1|Add0~42_combout $end
$var wire 1 ~! inst1|Add0~40_combout $end
$var wire 1 !" inst1|Add0~32_combout $end
$var wire 1 "" inst1|Add0~30_combout $end
$var wire 1 #" inst1|Add0~28_combout $end
$var wire 1 $" inst1|Add0~24_combout $end
$var wire 1 %" inst1|Add0~22_combout $end
$var wire 1 &" inst1|Add0~20_combout $end
$var wire 1 '" inst1|Add0~18_combout $end
$var wire 1 (" inst1|Add0~14_combout $end
$var wire 1 )" inst1|Add0~12_combout $end
$var wire 1 *" inst1|Add0~10_combout $end
$var wire 1 +" inst1|Add0~8_combout $end
$var wire 1 ," inst1|Add0~0_combout $end
$var wire 1 -" inst1|Add1~1_cout $end
$var wire 1 ." inst1|Add1~3_cout $end
$var wire 1 /" inst1|Add1~5_cout $end
$var wire 1 0" inst1|Add1~7_cout $end
$var wire 1 1" inst1|Add1~9_cout $end
$var wire 1 2" inst1|Add1~11_cout $end
$var wire 1 3" inst1|Add1~13_cout $end
$var wire 1 4" inst1|Add1~15_cout $end
$var wire 1 5" inst1|Add1~17_cout $end
$var wire 1 6" inst1|Add1~19_cout $end
$var wire 1 7" inst1|Add1~21_cout $end
$var wire 1 8" inst1|Add1~23_cout $end
$var wire 1 9" inst1|Add1~25_cout $end
$var wire 1 :" inst1|Add1~27_cout $end
$var wire 1 ;" inst1|Add1~29_cout $end
$var wire 1 <" inst1|Add1~31_cout $end
$var wire 1 =" inst1|Add1~33_cout $end
$var wire 1 >" inst1|Add1~35_cout $end
$var wire 1 ?" inst1|Add1~37_cout $end
$var wire 1 @" inst1|Add1~39_cout $end
$var wire 1 A" inst1|Add1~41_cout $end
$var wire 1 B" inst1|Add1~43_cout $end
$var wire 1 C" inst1|Add1~45_cout $end
$var wire 1 D" inst1|Add1~47_cout $end
$var wire 1 E" inst1|Add1~49_cout $end
$var wire 1 F" inst1|Add1~51_cout $end
$var wire 1 G" inst1|Add1~53_cout $end
$var wire 1 H" inst1|Add1~55_cout $end
$var wire 1 I" inst1|Add1~57_cout $end
$var wire 1 J" inst1|Add1~59_cout $end
$var wire 1 K" inst1|Add1~61_cout $end
$var wire 1 L" inst1|Add1~63_cout $end
$var wire 1 M" inst1|Add1~65_cout $end
$var wire 1 N" inst1|Add1~67_cout $end
$var wire 1 O" inst1|Add1~69_cout $end
$var wire 1 P" inst1|Add1~71_cout $end
$var wire 1 Q" inst1|Add1~73_cout $end
$var wire 1 R" inst1|Add1~75_cout $end
$var wire 1 S" inst1|Add1~77_cout $end
$var wire 1 T" inst1|Add1~79_cout $end
$var wire 1 U" inst1|Add1~81_cout $end
$var wire 1 V" inst1|Add1~83_cout $end
$var wire 1 W" inst1|Add1~85_cout $end
$var wire 1 X" inst1|Add1~87_cout $end
$var wire 1 Y" inst1|Add1~89_cout $end
$var wire 1 Z" inst1|Add1~91_cout $end
$var wire 1 [" inst1|Add1~93_cout $end
$var wire 1 \" inst1|Add1~95_cout $end
$var wire 1 ]" inst1|Add1~97_cout $end
$var wire 1 ^" inst1|Add1~99_cout $end
$var wire 1 _" inst1|Add1~101_cout $end
$var wire 1 `" inst1|Add1~103_cout $end
$var wire 1 a" inst1|Add1~105_cout $end
$var wire 1 b" inst1|Add1~107_cout $end
$var wire 1 c" inst1|Add1~109_cout $end
$var wire 1 d" inst1|Add1~111_cout $end
$var wire 1 e" inst1|Add1~113_cout $end
$var wire 1 f" inst1|Add1~115_cout $end
$var wire 1 g" inst1|Add1~117_cout $end
$var wire 1 h" inst1|Add1~119_cout $end
$var wire 1 i" inst1|Add1~121_cout $end
$var wire 1 j" inst1|Add1~123_cout $end
$var wire 1 k" inst1|Add1~124_combout $end
$var wire 1 l" A~combout [63] $end
$var wire 1 m" A~combout [62] $end
$var wire 1 n" A~combout [61] $end
$var wire 1 o" A~combout [60] $end
$var wire 1 p" A~combout [59] $end
$var wire 1 q" A~combout [58] $end
$var wire 1 r" A~combout [57] $end
$var wire 1 s" A~combout [56] $end
$var wire 1 t" A~combout [55] $end
$var wire 1 u" A~combout [54] $end
$var wire 1 v" A~combout [53] $end
$var wire 1 w" A~combout [52] $end
$var wire 1 x" A~combout [51] $end
$var wire 1 y" A~combout [50] $end
$var wire 1 z" A~combout [49] $end
$var wire 1 {" A~combout [48] $end
$var wire 1 |" A~combout [47] $end
$var wire 1 }" A~combout [46] $end
$var wire 1 ~" A~combout [45] $end
$var wire 1 !# A~combout [44] $end
$var wire 1 "# A~combout [43] $end
$var wire 1 ## A~combout [42] $end
$var wire 1 $# A~combout [41] $end
$var wire 1 %# A~combout [40] $end
$var wire 1 &# A~combout [39] $end
$var wire 1 '# A~combout [38] $end
$var wire 1 (# A~combout [37] $end
$var wire 1 )# A~combout [36] $end
$var wire 1 *# A~combout [35] $end
$var wire 1 +# A~combout [34] $end
$var wire 1 ,# A~combout [33] $end
$var wire 1 -# A~combout [32] $end
$var wire 1 .# A~combout [31] $end
$var wire 1 /# A~combout [30] $end
$var wire 1 0# A~combout [29] $end
$var wire 1 1# A~combout [28] $end
$var wire 1 2# A~combout [27] $end
$var wire 1 3# A~combout [26] $end
$var wire 1 4# A~combout [25] $end
$var wire 1 5# A~combout [24] $end
$var wire 1 6# A~combout [23] $end
$var wire 1 7# A~combout [22] $end
$var wire 1 8# A~combout [21] $end
$var wire 1 9# A~combout [20] $end
$var wire 1 :# A~combout [19] $end
$var wire 1 ;# A~combout [18] $end
$var wire 1 <# A~combout [17] $end
$var wire 1 =# A~combout [16] $end
$var wire 1 ># A~combout [15] $end
$var wire 1 ?# A~combout [14] $end
$var wire 1 @# A~combout [13] $end
$var wire 1 A# A~combout [12] $end
$var wire 1 B# A~combout [11] $end
$var wire 1 C# A~combout [10] $end
$var wire 1 D# A~combout [9] $end
$var wire 1 E# A~combout [8] $end
$var wire 1 F# A~combout [7] $end
$var wire 1 G# A~combout [6] $end
$var wire 1 H# A~combout [5] $end
$var wire 1 I# A~combout [4] $end
$var wire 1 J# A~combout [3] $end
$var wire 1 K# A~combout [2] $end
$var wire 1 L# A~combout [1] $end
$var wire 1 M# A~combout [0] $end
$var wire 1 N# B~combout [63] $end
$var wire 1 O# B~combout [62] $end
$var wire 1 P# B~combout [61] $end
$var wire 1 Q# B~combout [60] $end
$var wire 1 R# B~combout [59] $end
$var wire 1 S# B~combout [58] $end
$var wire 1 T# B~combout [57] $end
$var wire 1 U# B~combout [56] $end
$var wire 1 V# B~combout [55] $end
$var wire 1 W# B~combout [54] $end
$var wire 1 X# B~combout [53] $end
$var wire 1 Y# B~combout [52] $end
$var wire 1 Z# B~combout [51] $end
$var wire 1 [# B~combout [50] $end
$var wire 1 \# B~combout [49] $end
$var wire 1 ]# B~combout [48] $end
$var wire 1 ^# B~combout [47] $end
$var wire 1 _# B~combout [46] $end
$var wire 1 `# B~combout [45] $end
$var wire 1 a# B~combout [44] $end
$var wire 1 b# B~combout [43] $end
$var wire 1 c# B~combout [42] $end
$var wire 1 d# B~combout [41] $end
$var wire 1 e# B~combout [40] $end
$var wire 1 f# B~combout [39] $end
$var wire 1 g# B~combout [38] $end
$var wire 1 h# B~combout [37] $end
$var wire 1 i# B~combout [36] $end
$var wire 1 j# B~combout [35] $end
$var wire 1 k# B~combout [34] $end
$var wire 1 l# B~combout [33] $end
$var wire 1 m# B~combout [32] $end
$var wire 1 n# B~combout [31] $end
$var wire 1 o# B~combout [30] $end
$var wire 1 p# B~combout [29] $end
$var wire 1 q# B~combout [28] $end
$var wire 1 r# B~combout [27] $end
$var wire 1 s# B~combout [26] $end
$var wire 1 t# B~combout [25] $end
$var wire 1 u# B~combout [24] $end
$var wire 1 v# B~combout [23] $end
$var wire 1 w# B~combout [22] $end
$var wire 1 x# B~combout [21] $end
$var wire 1 y# B~combout [20] $end
$var wire 1 z# B~combout [19] $end
$var wire 1 {# B~combout [18] $end
$var wire 1 |# B~combout [17] $end
$var wire 1 }# B~combout [16] $end
$var wire 1 ~# B~combout [15] $end
$var wire 1 !$ B~combout [14] $end
$var wire 1 "$ B~combout [13] $end
$var wire 1 #$ B~combout [12] $end
$var wire 1 $$ B~combout [11] $end
$var wire 1 %$ B~combout [10] $end
$var wire 1 &$ B~combout [9] $end
$var wire 1 '$ B~combout [8] $end
$var wire 1 ($ B~combout [7] $end
$var wire 1 )$ B~combout [6] $end
$var wire 1 *$ B~combout [5] $end
$var wire 1 +$ B~combout [4] $end
$var wire 1 ,$ B~combout [3] $end
$var wire 1 -$ B~combout [2] $end
$var wire 1 .$ B~combout [1] $end
$var wire 1 /$ B~combout [0] $end
$upscope $end
$upscope $end
$enddefinitions $end
#0
$dumpvars
b1111111111111111111111111111111111111111111111111111111111110110 !
b10001 "
1b
0a
0`
0_
0^
0]
0\
0[
0Z
0Y
0X
0W
0V
0U
0T
0S
0R
0Q
0P
0O
0N
0M
0L
0K
0J
0I
0H
0G
0F
0E
0D
0C
0B
0A
0@
0?
0>
0=
0<
0;
0:
09
08
07
06
05
04
03
02
01
00
0/
0.
0-
0,
0+
0*
0)
0(
0'
0&
0%
0$
0#
xc
0d
1e
xf
1g
1h
1i
0j
1k
0l
1m
1n
1o
1p
1q
1r
1s
1t
1u
1v
1w
1x
1y
1z
1{
1|
1}
0~
0!!
1"!
0#!
1$!
0%!
1&!
0'!
1(!
0)!
1*!
0+!
1,!
0-!
1.!
0/!
10!
01!
12!
03!
14!
05!
16!
07!
18!
09!
1:!
0;!
1<!
0=!
1>!
0?!
1@!
0A!
1B!
0C!
1D!
0E!
1F!
0G!
1H!
0I!
1J!
0K!
1L!
0M!
1N!
0O!
1P!
0Q!
1R!
0S!
1T!
0U!
1V!
0W!
1X!
0Y!
1Z!
0[!
1\!
0]!
1^!
1_!
1`!
1a!
1b!
1c!
1d!
1e!
1f!
1g!
1h!
1i!
1j!
1k!
1l!
1m!
1n!
1o!
1p!
1q!
1r!
1s!
1t!
1u!
1v!
1w!
1x!
1y!
1z!
1{!
1|!
1}!
1~!
1!"
1""
1#"
1$"
1%"
1&"
1'"
1("
1)"
1*"
0+"
0,"
0-"
1."
0/"
10"
01"
12"
03"
14"
05"
16"
07"
18"
09"
1:"
0;"
1<"
0="
1>"
0?"
1@"
0A"
1B"
0C"
1D"
0E"
1F"
0G"
1H"
0I"
1J"
0K"
1L"
0M"
1N"
0O"
1P"
0Q"
1R"
0S"
1T"
0U"
1V"
0W"
1X"
0Y"
1Z"
0["
1\"
0]"
1^"
0_"
1`"
0a"
1b"
0c"
1d"
0e"
1f"
0g"
1h"
0i"
1j"
1k"
0M#
1L#
1K#
0J#
1I#
1H#
1G#
1F#
1E#
1D#
1C#
1B#
1A#
1@#
1?#
1>#
1=#
1<#
1;#
1:#
19#
18#
17#
16#
15#
14#
13#
12#
11#
10#
1/#
1.#
1-#
1,#
1+#
1*#
1)#
1(#
1'#
1&#
1%#
1$#
1##
1"#
1!#
1~"
1}"
1|"
1{"
1z"
1y"
1x"
1w"
1v"
1u"
1t"
1s"
1r"
1q"
1p"
1o"
1n"
1m"
1l"
1/$
0.$
0-$
0,$
1+$
0*$
0)$
0($
0'$
0&$
0%$
0$$
0#$
0"$
0!$
0~#
0}#
0|#
0{#
0z#
0y#
0x#
0w#
0v#
0u#
0t#
0s#
0r#
0q#
0p#
0o#
0n#
0m#
0l#
0k#
0j#
0i#
0h#
0g#
0f#
0e#
0d#
0c#
0b#
0a#
0`#
0_#
0^#
0]#
0\#
0[#
0Z#
0Y#
0X#
0W#
0V#
0U#
0T#
0S#
0R#
0Q#
0P#
0O#
0N#
$end
#10000
b1111111111111111111111111111111111111111111111111111111111110111 !
b10000 "
0/$
1M#
0c
1~
1j
#20000
b1111111111111111111111111111111111111111111111111111111111111111 !
b1111111111111111111111111111111111111111111111111111111111111011 !
b1111111111111111111111111111111111111111111111111111111111111001 !
b0 "
b1000 "
b1100 "
b1110 "
b1111111111111111111111111111111111111111111111111111111111111000 !
b1111 "
1/$
1.$
1-$
1,$
0+$
0M#
0L#
0K#
1J#
1c
0~
1!!
0"!
1+"
0j
0k
1#!
1l
0+"
#30000
b1111111111111111111111111111111111111111111111111111111111111001 !
b1110 "
0/$
1M#
0c
1~
1j
#40000
b1111111111111111111111111111111111111111111111111111111111111011 !
b1100 "
b1111111111111111111111111111111111111111111111111111111111111010 !
b1101 "
1/$
0.$
0M#
1L#
1c
0~
0!!
0j
1k
#50000
b1111111111111111111111111111111111111111111111111111111111111011 !
b1100 "
0/$
1M#
0c
1~
1j
#60000
b1111111111111111111111111111111111111111111111111111111111111111 !
b1000 "
b1111111111111111111111111111111111111111111111111111111111111101 !
b1010 "
b1111111111111111111111111111111111111111111111111111111111111100 !
b1011 "
1/$
1.$
0-$
0M#
0L#
1K#
1c
0~
1!!
1"!
0j
0k
0#!
0l
1+"
#70000
b1111111111111111111111111111111111111111111111111111111111111101 !
b1010 "
0/$
1M#
0c
1~
1j
#80000
b1111111111111111111111111111111111111111111111111111111111111111 !
b1000 "
b1111111111111111111111111111111111111111111111111111111111111110 !
b1001 "
1/$
0.$
0M#
1L#
1c
0~
0!!
0j
1k
#90000
b1111111111111111111111111111111111111111111111111111111111111111 !
b1000 "
0/$
1M#
0c
1~
1j
#100000
b111111111111111111111111111111111111111111111111111111111111111 !
b11111111111111111111111111111111111111111111111111111111111111 !
b1111111111111111111111111111111111111111111111111111111111111 !
b111111111111111111111111111111111111111111111111111111111111 !
b11111111111111111111111111111111111111111111111111111111111 !
b1111111111111111111111111111111111111111111111111111111111 !
b111111111111111111111111111111111111111111111111111111111 !
b11111111111111111111111111111111111111111111111111111111 !
b1111111111111111111111111111111111111111111111111111111 !
b111111111111111111111111111111111111111111111111111111 !
b11111111111111111111111111111111111111111111111111111 !
b1111111111111111111111111111111111111111111111111111 !
b111111111111111111111111111111111111111111111111111 !
b11111111111111111111111111111111111111111111111111 !
b1111111111111111111111111111111111111111111111111 !
b111111111111111111111111111111111111111111111111 !
b11111111111111111111111111111111111111111111111 !
b1111111111111111111111111111111111111111111111 !
b111111111111111111111111111111111111111111111 !
b11111111111111111111111111111111111111111111 !
b1111111111111111111111111111111111111111111 !
b111111111111111111111111111111111111111111 !
b11111111111111111111111111111111111111111 !
b1111111111111111111111111111111111111111 !
b111111111111111111111111111111111111111 !
b11111111111111111111111111111111111111 !
b1111111111111111111111111111111111111 !
b111111111111111111111111111111111111 !
b11111111111111111111111111111111111 !
b1111111111111111111111111111111111 !
b111111111111111111111111111111111 !
b11111111111111111111111111111111 !
b1111111111111111111111111111111 !
b111111111111111111111111111111 !
b11111111111111111111111111111 !
b1111111111111111111111111111 !
b111111111111111111111111111 !
b11111111111111111111111111 !
b1111111111111111111111111 !
b111111111111111111111111 !
b11111111111111111111111 !
b1111111111111111111111 !
b111111111111111111111 !
b11111111111111111111 !
b1111111111111111111 !
b111111111111111111 !
b11111111111111111 !
b1111111111111111 !
b111111111111111 !
b11111111111111 !
b1111111111111 !
b111111111111 !
b11111111111 !
b1111111111 !
b111111111 !
b11111111 !
b1111111 !
b111111 !
b11111 !
b1111 !
b111 !
b0 "
b11 !
b100 "
b1 !
b110 "
b0 !
b111 "
1/$
1.$
1-$
0,$
0M#
0L#
0K#
0J#
0I#
0H#
0G#
0F#
0E#
0D#
0C#
0B#
0A#
0@#
0?#
0>#
0=#
0<#
0;#
0:#
09#
08#
07#
06#
05#
04#
03#
02#
01#
00#
0/#
0.#
0-#
0,#
0+#
0*#
0)#
0(#
0'#
0&#
0%#
0$#
0##
0"#
0!#
0~"
0}"
0|"
0{"
0z"
0y"
0x"
0w"
0v"
0u"
0t"
0s"
0r"
0q"
0p"
0o"
0n"
0m"
0l"
1c
0~
1!!
0"!
0+"
0*"
0)"
0("
0m
0'"
0&"
0%"
0$"
0n
0#"
0""
0!"
0o
0p
0q
0~!
0}!
0|!
0{!
0r
0z!
0y!
0x!
0w!
0s
0v!
0u!
0t!
0t
0u
0v
0s!
0r!
0q!
0p!
0w
0o!
0n!
0m!
0l!
0x
0k!
0j!
0i!
0y
0z
0{
0h!
0g!
0f!
0e!
0|
0d!
0c!
0b!
0a!
0}
0`!
0_!
0j
0k
1#!
1l
0k"
0$!
1+"
0b
1%!
1*"
0&!
1)"
1'!
1("
0(!
1m
1)!
1'"
0*!
1&"
1+!
1%"
0,!
1$"
1-!
1n
0.!
1#"
1/!
1""
00!
1!"
11!
1o
02!
1p
13!
1q
04!
1~!
15!
1}!
06!
1|!
17!
1{!
08!
1r
19!
1z!
0:!
1y!
1;!
1x!
0<!
1w!
1=!
1s
0>!
1v!
1?!
1u!
0@!
1t!
1A!
1t
0B!
1u
1C!
1v
0D!
1s!
1E!
1r!
0F!
1q!
1G!
1p!
0H!
1w
1I!
1o!
0J!
1n!
1K!
1m!
0L!
1l!
1M!
1x
0N!
1k!
1O!
1j!
0P!
1i!
1Q!
1y
0R!
1z
1S!
1{
0T!
1h!
1U!
1g!
0V!
1f!
1W!
1e!
0X!
1|
1Y!
1d!
0Z!
1c!
1[!
1b!
0\!
1a!
1]!
1}
0^!
1`!
1_!
1k"
1b
#110000
b1 !
b110 "
0/$
1M#
0c
1~
1j
#120000
b11 !
b100 "
b10 !
b101 "
1/$
0.$
0M#
1L#
1c
0~
0!!
0j
1k
#130000
b11 !
b100 "
0/$
1M#
0c
1~
1j
#140000
b111 !
b0 "
b101 !
b10 "
b100 !
b11 "
1/$
1.$
0-$
0M#
0L#
1K#
1c
0~
1!!
1"!
0j
0k
0#!
0l
1$!
0+"
0%!
0*"
1&!
0)"
0'!
0("
1(!
0m
0)!
0'"
1*!
0&"
0+!
0%"
1,!
0$"
0-!
0n
1.!
0#"
0/!
0""
10!
0!"
01!
0o
12!
0p
03!
0q
14!
0~!
05!
0}!
16!
0|!
07!
0{!
18!
0r
09!
0z!
1:!
0y!
0;!
0x!
1<!
0w!
0=!
0s
1>!
0v!
0?!
0u!
1@!
0t!
0A!
0t
1B!
0u
0C!
0v
1D!
0s!
0E!
0r!
1F!
0q!
0G!
0p!
1H!
0w
0I!
0o!
1J!
0n!
0K!
0m!
1L!
0l!
0M!
0x
1N!
0k!
0O!
0j!
1P!
0i!
0Q!
0y
1R!
0z
0S!
0{
1T!
0h!
0U!
0g!
1V!
0f!
0W!
0e!
1X!
0|
0Y!
0d!
1Z!
0c!
0[!
0b!
1\!
0a!
0]!
0}
1^!
0`!
0_!
0k"
0b
#150000
b101 !
b10 "
0/$
1M#
0c
1~
1j
#160000
b111 !
b0 "
b110 !
b1 "
1/$
0.$
0M#
1L#
1c
0~
0!!
0j
1k
#170000
b111 !
b0 "
0/$
1M#
0c
1~
1j
